[
  {
    "id": 1,
    "senderId": 3,
    "recieverId": 1,
    "status": "ON_WAIT",
    "date": "Feb 20, 2020, 1:20:00 PM",
    "isDeleted": false
  },
  {
    "id": 2,
    "senderId": 3,
    "recieverId": 2,
    "status": "REJECTED",
    "date": "Feb 20, 2020, 1:30:00 PM",
    "isDeleted": false
  }
]