[
  {
    "id": 1,
    "picturePath": "../images/pic1.jpg",
    "date": "Jan 20, 2020, 12:40:04 PM",
    "caption": "Moja profilna",
    "commentsIds": [],
    "isDeleted": false
  },
  {
    "id": 2,
    "picturePath": "../images/pic2.jpg",
    "date": "Jan 19, 2020, 3:40:04 PM",
    "caption": "Profilna",
    "commentsIds": [],
    "isDeleted": false
  },
    {
    "id": 3,
    "picturePath": "../images/pic3.jpg",
    "date": "Jan 22, 2020, 3:40:04 PM",
    "caption": "Hej hej",
    "commentsIds": [],
    "isDeleted": false
  },
    {
    "id": 4,
    "picturePath": "../images/pic4.jpg",
    "date": "Jan 21, 2020, 3:40:04 PM",
    "caption": "Hej",
    "commentsIds": [],
    "isDeleted": false
  },
   {
    "id": 5,
    "picturePath": "../images/pic5.jpg",
    "date": "Jan 23, 2020, 3:40:04 PM",
    "caption": "Tom Holland Machine",
    "commentsIds": [3],
    "isDeleted": false
  }
]